{
    "/js/app.js": "/js/app.js?id=b65ff85aafeef74bb8da",
    "/css/app.css": "/css/app.css?id=bef8df11f064a0532df6",
    "/js/page/customers.js": "/js/page/customers.js?id=349ae9410ffa9f79549a",
    "/js/vendors.bundle.js": "/js/vendors.bundle.js?id=a10d47642f657f077dd1",
    "/js/scripts.bundle.js": "/js/scripts.bundle.js?id=bc1a0a90c2ddc397e13f"
}